…
unsolved_homiside <- homicide %>% 
  filter(disposition == "Closed without arrest" | disposition == "Open/No arrest") %>% 
  group_by(city_state) %>% 
  summarize(unsolved_cases = n()) 

(cases_table <- left_join(total_homicide,unsolved_homiside, by = "city_state") %>% 
    mutate(
    unsolved_cases = case_when(is.na(unsolved_cases) ~ 0,TRUE ~ unsolved_cases)
    ))
```

    ## # A tibble: 51 × 3
    ##    city_state      total_cases unsolved_cases
    ##    <chr>                 <int>          <dbl>
    ##  1 Albuquerque, NM         378            146
    ##  2 Atlanta, GA             973            373
    ##  3 Baltimore, MD          2827           1825
    ##  4 Baton Rouge, LA         424            196
    ##  5 Birmingham, AL          800            347
    ##  6 Boston, MA              614            310
    ##  7 Buffalo, NY             521            319
    ##  8 Charlotte, NC           687            206
    ##  9 Chicago, IL            5535           4073
    ## 10 Cincinnati, OH          694            309
    ## # ℹ 41 more rows
…
